prep + plot + print Technique for Reproducible Graphing
…
  return(l_support)
}
# how to use
l_support <- ds %>% 
  prep_data_plot_1(
    dim_horizontal  = "hmo_total"
    ,dim_vertical   = "wtg_velocity"
    ,dim_color      = "atopy_1y"
    # ,dim_color      = "wtclass_1y"
  )
l_support %>% print()

$data
# A tibble: 1,138 x 31
      ids atopy_1y wz_recurrent_1y atopy_food_1y atopy_nonfood_1y wtclass_1y ow_1y owrisk_1y
    <dbl> <lgl>    <lgl>           <lgl>         <lgl>            <chr>      <lgl> <lgl>    
 1 141234 TRUE     FALSE           TRUE          FALSE            2-At Risk  FALSE TRUE     
 2 105842 TRUE     FALSE           TRUE          FALSE            1-Normal   FALSE FALSE    
 3 114988 FALSE    FALSE           FALSE         FALSE            1-Normal   FALSE FALSE    
 4 117827 TRUE     FALSE           TRUE          FALSE            1-Normal   FALSE FALSE    
 5 148256 FALSE    FALSE           FALSE         FALSE            1-Normal   FALSE FALSE    
 6 148374 FALSE    FALSE           FALSE         FALSE            1-Normal   FALSE FALSE    
 7 126651 FALSE    FALSE           FALSE         FALSE            2-At Risk  FALSE TRUE     
 8 116605 FALSE    FALSE           FALSE         FALSE            1-Normal   FALSE FALSE    
 9 132687 FALSE    FALSE           FALSE         FALSE            1-Normal   FALSE FALSE    
10 130722 TRUE     FALSE           TRUE          FALSE            1-Normal   FALSE FALSE    
# ... with 1,128 more rows, and 23 more variables: rapid_bmigrowth_12m <lgl>,
#   rapid_wflgrowth_12m <lgl>, rapid_wgt_0to12m <lgl>, dzwgt_0to12m <dbl>, cat_pn <dbl>,
#   dog_pn <dbl>, ga_wks <dbl>, ga_wks_cat <dbl>, sex <dbl>, older_sibs3 <chr>, lact_season <chr>,
#   mom_wtclass3 <dbl>, prudent <dbl>, alcohol <dbl>, caffeine <dbl>, bf_duration_imp <dbl>,
#   bf_12m <dbl>, diet_sampling <chr>, ebf_duration <dbl>, hmo_total <dbl>, hmo_diversity <dbl>,
#   pets_home_12m <chr>, wtg_velocity <dbl>
…
